%YAML 1.1
%TAG !u! tag:unity3d.com,2011:
--- !u!65 &4928407365299894423
BoxCollider:
  m_ObjectHideFlags: 0
  m_CorrespondingSourceObject: {fileID: 0}
  m_PrefabInstance: {fileID: 0}
  m_PrefabAsset: {fileID: 0}
  m_GameObject: {fileID: 148608192380929269}
  m_Material: {fileID: 0}
  m_IsTrigger: 0
  m_Enabled: 1
  serializedVersion: 2
  m_Size: {x: 0.020000005, y: 0.030000005, z: 0.01}
  m_Center: {x: 0, y: 0, z: 0.005}
--- !u!114 &2999300338017108456
MonoBehaviour:
  m_ObjectHideFlags: 0
  m_CorrespondingSourceObject: {fileID: 0}
  m_PrefabInstance: {fileID: 0}
  m_PrefabAsset: {fileID: 0}
  m_GameObject: {fileID: 148608192380929269}
  m_Enabled: 1
  m_EditorHideFlags: 0
  m_Script: {fileID: 11500000, guid: 627855c7f81362d41938ffe0b1475957, type: 3}
  m_Name: 
  m_EditorClassIdentifier: 
  m_PositionModel:
    SynchronizeEnabled: 1
    TeleportEnabled: 1
    TeleportIfDistanceGreaterThan: 3
    InterpolateOption: 4
    InterpolateMoveTowardsSpeed: 1
    InterpolateLerpSpeed: 10
    InterpolateMoveTowardsAcceleration: 2
    InterpolateMoveTowardsDeceleration: 2
    InterpolateSpeedCurve:
      serializedVersion: 2
      m_Curve:
      - serializedVersion: 3
        time: -1
        value: 0
        inSlope: 0
        outSlope: Infinity
        tangentMode: 0
        weightedMode: 0
        inWeight: 0.33333334
        outWeight: 0.33333334
      - serializedVersion: 3
        time: 0
        value: 1
        inSlope: 0
        outSlope: 0
        tangentMode: 0
        weightedMode: 0
        inWeight: 0.33333334
        outWeight: 0.33333334
      - serializedVersion: 3
        time: 1
        value: 1
        inSlope: 0
        outSlope: 1
        tangentMode: 0
        weightedMode: 0
        inWeight: 0.33333334
        outWeight: 0.33333334
      - serializedVersion: 3
        time: 4
        value: 4
        inSlope: 1
        outSlope: 0
        tangentMode: 0
        weightedMode: 0
        inWeight: 0.33333334
        outWeight: 0.33333334
      m_PreInfinity: 2
      m_PostInfinity: 2
      m_RotationOrder: 4
    ExtrapolateOption: 0
    ExtrapolateSpeed: 1
    ExtrapolateIncludingRoundTripTime: 1
    ExtrapolateNumberOfStoredPositions: 1
    DrawErrorGizmo: 1
  m_RotationModel:
    SynchronizeEnabled: 1
    InterpolateOption: 2
    InterpolateRotateTowardsSpeed: 180
    InterpolateLerpSpeed: 50
  m_ScaleModel:
    SynchronizeEnabled: 0
    InterpolateOption: 0
    InterpolateMoveTowardsSpeed: 1
    InterpolateLerpSpeed: 0
--- !u!114 &4188112350883492897
MonoBehaviour:
  m_ObjectHideFlags: 0
  m_CorrespondingSourceObject: {fileID: 0}
  m_PrefabInstance: {fileID: 0}
  m_PrefabAsset: {fileID: 0}
  m_GameObject: {fileID: 148608192380929269}
  m_Enabled: 1
  m_EditorHideFlags: 0
  m_Script: {fileID: 11500000, guid: a45b3bcf7ae65a94b9435cd190504643, type: 3}
  m_Name: 
  m_EditorClassIdentifier: 
  movementSpeed: 1
  maxHeight: 10
  explosionPrefabHit: {fileID: 2175962046645149461, guid: 762dca1d59119bc42ac2d763e3476889,
    type: 3}
  explosionPrefabGround: {fileID: 4687032214936988844, guid: 44b811210921aa84f98bbc0b9a75165d,
    type: 3}
  hasBeenGrabbed: 0
--- !u!114 &6851830019054702200
MonoBehaviour:
  m_ObjectHideFlags: 0
  m_CorrespondingSourceObject: {fileID: 0}
  m_PrefabInstance: {fileID: 0}
  m_PrefabAsset: {fileID: 0}
  m_GameObject: {fileID: 148608192380929269}
  m_Enabled: 1
  m_EditorHideFlags: 0
  m_Script: {fileID: 11500000, guid: aa584fbee541324448dd18d8409c7a41, type: 3}
  m_Name: 
  m_EditorClassIdentifier: 
  ownerId: 0
  group: 0
  OwnerShipWasTransfered: 0
  prefixBackup: -1
  synchronization: 3
  onSerializeTransformOption: 3
  onSerializeRigidBodyOption: 2
  ownershipTransfer: 0
  ObservedComponents:
  - {fileID: 2999300338017108456}
  ObservedComponentsFoldoutOpen: 1
  viewIdField: 0
  instantiationId: -1
  currentMasterID: -1
  isRuntimeInstantiated: 0
--- !u!114 &8398799875388744953
MonoBehaviour:
  m_ObjectHideFlags: 0
  m_CorrespondingSourceObject: {fileID: 0}
  m_PrefabInstance: {fileID: 0}
  m_PrefabAsset: {fileID: 0}
  m_GameObject: {fileID: 148608192380929269}
  m_Enabled: 1
  m_EditorHideFlags: 0
  m_Script: {fileID: 11500000, guid: 67a572fed89231644922b161aabe3872, type: 3}
  m_Name: 
  m_EditorClassIdentifier: 
  onGrab:
    m_PersistentCalls:
      m_Calls: []
--- !u!1001 &148608192380930034
PrefabInstance:
  m_ObjectHideFlags: 0
  serializedVersion: 2
  m_Modification:
    m_TransformParent: {fileID: 0}
    m_Modifications:
    - target: {fileID: 1229466674988746500, guid: 6718422e5e11fd448ae6ed3a9f5ebf63,
        type: 3}
      propertyPath: errorMessage
      value: this GameObject is not a prefab
      objectReference: {fileID: 0}
    - target: {fileID: 2328487077727424751, guid: 6718422e5e11fd448ae6ed3a9f5ebf63,
        type: 3}
      propertyPath: m_IsKinematic
      value: 1
      objectReference: {fileID: 0}
    - target: {fileID: 2341962999348836599, guid: 6718422e5e11fd448ae6ed3a9f5ebf63,
        type: 3}
      propertyPath: m_LocalPosition.x
      value: -0.881
      objectReference: {fileID: 0}
    - target: {fileID: 2341962999348836599, guid: 6718422e5e11fd448ae6ed3a9f5ebf63,
        type: 3}
      propertyPath: m_LocalPosition.y
      value: -0.607
      objectReference: {fileID: 0}
    - target: {fileID: 2341962999348836599, guid: 6718422e5e11fd448ae6ed3a9f5ebf63,
        type: 3}
      propertyPath: m_LocalPosition.z
      value: -0.693
      objectReference: {fileID: 0}
    - target: {fileID: 2341962999348836599, guid: 6718422e5e11fd448ae6ed3a9f5ebf63,
        type: 3}
      propertyPath: m_LocalRotation.x
      value: -0
      objectReference: {fileID: 0}
    - target: {fileID: 2341962999348836599, guid: 6718422e5e11fd448ae6ed3a9f5ebf63,
        type: 3}
      propertyPath: m_LocalRotation.y
      value: -0
      objectReference: {fileID: 0}
    - target: {fileID: 2341962999348836599, guid: 6718422e5e11fd448ae6ed3a9f5ebf63,
        type: 3}
      propertyPath: m_LocalRotation.z
      value: -0
      objectReference: {fileID: 0}
    - target: {fileID: 2341962999348836599, guid: 6718422e5e11fd448ae6ed3a9f5ebf63,
        type: 3}
      propertyPath: m_LocalRotation.w
      value: 1
      objectReference: {fileID: 0}
    - target: {fileID: 2341962999348836599, guid: 6718422e5e11fd448ae6ed3a9f5ebf63,
        type: 3}
      propertyPath: m_RootOrder
      value: 0
      objectReference: {fileID: 0}
    - target: {fileID: 2341962999348836599, guid: 6718422e5e11fd448ae6ed3a9f5ebf63,
        type: 3}
      propertyPath: m_LocalEulerAnglesHint.x
      value: 0
      objectReference: {fileID: 0}
    - target: {fileID: 2341962999348836599, guid: 6718422e5e11fd448ae6ed3a9f5ebf63,
        type: 3}
      propertyPath: m_LocalEulerAnglesHint.y
      value: 0
      objectReference: {fileID: 0}
    - target: {fileID: 2341962999348836599, guid: 6718422e5e11fd448ae6ed3a9f5ebf63,
        type: 3}
      propertyPath: m_LocalEulerAnglesHint.z
      value: 0
      objectReference: {fileID: 0}
    - target: {fileID: 2341962999348836599, guid: 6718422e5e11fd448ae6ed3a9f5ebf63,
        type: 3}
      propertyPath: m_LocalScale.x
      value: 16
      objectReference: {fileID: 0}
    - target: {fileID: 2341962999348836599, guid: 6718422e5e11fd448ae6ed3a9f5ebf63,
        type: 3}
      propertyPath: m_LocalScale.y
      value: 16
      objectReference: {fileID: 0}
    - target: {fileID: 2341962999348836599, guid: 6718422e5e11fd448ae6ed3a9f5ebf63,
        type: 3}
      propertyPath: m_LocalScale.z
      value: 16
      objectReference: {fileID: 0}
    - target: {fileID: 2348162799026237651, guid: 6718422e5e11fd448ae6ed3a9f5ebf63,
        type: 3}
      propertyPath: m_Name
      value: Cube_8 Variant
      objectReference: {fileID: 0}
    - target: {fileID: 2348162799026237651, guid: 6718422e5e11fd448ae6ed3a9f5ebf63,
        type: 3}
      propertyPath: m_TagString
      value: StackingObject
      objectReference: {fileID: 0}
    - target: {fileID: 2348162799026237651, guid: 6718422e5e11fd448ae6ed3a9f5ebf63,
        type: 3}
      propertyPath: m_Layer
      value: 0
      objectReference: {fileID: 0}
    m_RemovedComponents:
    - {fileID: 2340140348285938039, guid: 6718422e5e11fd448ae6ed3a9f5ebf63, type: 3}
  m_SourcePrefab: {fileID: 100100000, guid: 6718422e5e11fd448ae6ed3a9f5ebf63, type: 3}
--- !u!1 &148608192380929269 stripped
GameObject:
  m_CorrespondingSourceObject: {fileID: 2348162799026237651, guid: 6718422e5e11fd448ae6ed3a9f5ebf63,
    type: 3}
  m_PrefabInstance: {fileID: 148608192380930034}
  m_PrefabAsset: {fileID: 0}
