%YAML 1.1
%TAG !u! tag:unity3d.com,2011:
--- !u!114 &11400000
MonoBehaviour:
  m_ObjectHideFlags: 0
  m_CorrespondingSourceObject: {fileID: 0}
  m_PrefabInstance: {fileID: 0}
  m_PrefabAsset: {fileID: 0}
  m_GameObject: {fileID: 0}
  m_Enabled: 1
  m_EditorHideFlags: 0
  m_Script: {fileID: 11500000, guid: ec0b4dd729a12d046982652f834580a2, type: 3}
  m_Name: LMGroup_Plane_baked_normal
  m_EditorClassIdentifier: 
  resolution: 256
  bitmask: 16
  id: 3
  sortingID: 0
  isImplicit: 0
  area: 0
  totalVertexCount: 0
  vertexCounter: 0
  sceneLodLevel: -1
  sceneName: 
  containsTerrains: 0
  probes: 0
  mode: 0
  renderMode: 1000
  renderDirMode: 1
  computeSSS: 0
  sssSamples: 16
  sssDensity: 10
  sssColor: {r: 1, g: 1, b: 1, a: 1}
  fakeShadowBias: 0
  transparentSelfShadow: 0
